<?xml version="1.0" encoding="UTF-8"?>
<!DOCTYPE suite SYSTEM "http://testng.org/testng-1.0.dtd">
<suite verbose="0" name="Failed suite [Command line suite]">
  <test name="Command line test(failed)">
    <classes>
      <class name="com.epam.gomel.homework.BoyTest">
        <methods>
          <include name="testSpendSomeMoney"/>
        </methods>
      </class> <!-- com.epam.gomel.homework.BoyTest -->
    </classes>
  </test> <!-- Command line test(failed) -->
</suite> <!-- Failed suite [Command line suite] -->
