<?xml version="1.0" encoding="UTF-8"?>
<testng-results skipped="1" failed="0" total="4" passed="3">
  <reporter-output>
  </reporter-output>
  <suite name="Command line suite" duration-ms="26" started-at="2017-07-28T15:12:15Z" finished-at="2017-07-28T15:12:15Z">
    <groups>
    </groups>
    <test name="Command line test" duration-ms="26" started-at="2017-07-28T15:12:15Z" finished-at="2017-07-28T15:12:15Z">
      <class name="com.epam.gomel.homework.BoyTest">
        <test-method status="PASS" signature="testGetBoyMood(com.epam.gomel.homework.Month, double, boolean, boolean, com.epam.gomel.homework.Mood)[pri:0, instance:com.epam.gomel.homework.BoyTest@7f63425a]" name="testGetBoyMood" duration-ms="0" started-at="2017-07-28T18:12:15Z" data-provider="data-provider" finished-at="2017-07-28T18:12:15Z">
          <params>
            <param index="0">
              <value>
                <![CDATA[JANUARY]]>
              </value>
            </param>
            <param index="1">
              <value>
                <![CDATA[1000000]]>
              </value>
            </param>
            <param index="2">
              <value>
                <![CDATA[true]]>
              </value>
            </param>
            <param index="3">
              <value>
                <![CDATA[false]]>
              </value>
            </param>
            <param index="4">
              <value>
                <![CDATA[GOOD]]>
              </value>
            </param>
          </params>
          <reporter-output>
          </reporter-output>
        </test-method> <!-- testGetBoyMood -->
        <test-method status="PASS" signature="testGetBoyMood(com.epam.gomel.homework.Month, double, boolean, boolean, com.epam.gomel.homework.Mood)[pri:0, instance:com.epam.gomel.homework.BoyTest@7f63425a]" name="testGetBoyMood" duration-ms="0" started-at="2017-07-28T18:12:15Z" data-provider="data-provider" finished-at="2017-07-28T18:12:15Z">
          <params>
            <param index="0">
              <value>
                <![CDATA[JANUARY]]>
              </value>
            </param>
            <param index="1">
              <value>
                <![CDATA[1000000]]>
              </value>
            </param>
            <param index="2">
              <value>
                <![CDATA[false]]>
              </value>
            </param>
            <param index="3">
              <value>
                <![CDATA[true]]>
              </value>
            </param>
            <param index="4">
              <value>
                <![CDATA[BAD]]>
              </value>
            </param>
          </params>
          <reporter-output>
          </reporter-output>
        </test-method> <!-- testGetBoyMood -->
        <test-method status="SKIP" signature="testSpendSomeMoney(double)[pri:0, instance:com.epam.gomel.homework.BoyTest@7f63425a]" name="testSpendSomeMoney" duration-ms="0" started-at="2017-07-28T18:12:15Z" description="Testing of spending money" finished-at="2017-07-28T18:12:15Z">
          <exception class="org.testng.TestNGException">
            <message>
              <![CDATA[
Parameter 'spentMoney' is required by @Test on method testSpendSomeMoney but has not been marked @Optional or defined
]]>
            </message>
            <full-stacktrace>
              <![CDATA[org.testng.TestNGException: 
Parameter 'spentMoney' is required by @Test on method testSpendSomeMoney but has not been marked @Optional or defined

	at org.testng.internal.Parameters.createParameters(Parameters.java:154)
	at org.testng.internal.Parameters.createParameters(Parameters.java:361)
	at org.testng.internal.Parameters.handleParameters(Parameters.java:451)
	at org.testng.internal.Invoker.handleParameters(Invoker.java:1270)
	at org.testng.internal.Invoker.createParameters(Invoker.java:985)
	at org.testng.internal.Invoker.invokeTestMethods(Invoker.java:1075)
	at org.testng.internal.TestMethodWorker.invokeTestMethods(TestMethodWorker.java:125)
	at org.testng.internal.TestMethodWorker.run(TestMethodWorker.java:108)
	at org.testng.TestRunner.privateRun(TestRunner.java:774)
	at org.testng.TestRunner.run(TestRunner.java:624)
	at org.testng.SuiteRunner.runTest(SuiteRunner.java:359)
	at org.testng.SuiteRunner.runSequentially(SuiteRunner.java:354)
	at org.testng.SuiteRunner.privateRun(SuiteRunner.java:312)
	at org.testng.SuiteRunner.run(SuiteRunner.java:261)
	at org.testng.SuiteRunnerWorker.runSuite(SuiteRunnerWorker.java:52)
	at org.testng.SuiteRunnerWorker.run(SuiteRunnerWorker.java:86)
	at org.testng.TestNG.runSuitesSequentially(TestNG.java:1215)
	at org.testng.TestNG.runSuitesLocally(TestNG.java:1140)
	at org.testng.TestNG.run(TestNG.java:1048)
	at org.apache.maven.surefire.testng.TestNGExecutor.run(TestNGExecutor.java:77)
	at org.apache.maven.surefire.testng.TestNGDirectoryTestSuite.executeMulti(TestNGDirectoryTestSuite.java:159)
	at org.apache.maven.surefire.testng.TestNGDirectoryTestSuite.execute(TestNGDirectoryTestSuite.java:99)
	at org.apache.maven.surefire.testng.TestNGProvider.invoke(TestNGProvider.java:106)
	at sun.reflect.NativeMethodAccessorImpl.invoke0(Native Method)
	at sun.reflect.NativeMethodAccessorImpl.invoke(NativeMethodAccessorImpl.java:62)
	at sun.reflect.DelegatingMethodAccessorImpl.invoke(DelegatingMethodAccessorImpl.java:43)
	at java.lang.reflect.Method.invoke(Method.java:497)
	at org.apache.maven.surefire.util.ReflectionUtils.invokeMethodWithArray(ReflectionUtils.java:189)
	at org.apache.maven.surefire.booter.ProviderFactory$ProviderProxy.invoke(ProviderFactory.java:165)
	at org.apache.maven.surefire.booter.ProviderFactory.invokeProvider(ProviderFactory.java:85)
	at org.apache.maven.surefire.booter.ForkedBooter.runSuitesInProcess(ForkedBooter.java:115)
	at org.apache.maven.surefire.booter.ForkedBooter.main(ForkedBooter.java:75)
]]>
            </full-stacktrace>
          </exception> <!-- org.testng.TestNGException -->
          <reporter-output>
          </reporter-output>
        </test-method> <!-- testSpendSomeMoney -->
      </class> <!-- com.epam.gomel.homework.BoyTest -->
      <class name="com.epam.gomel.homework.BoyFactoryTest">
        <test-method status="PASS" signature="testGettingWealth()[pri:0, instance:com.epam.gomel.homework.BoyFactoryTest@b684286]" name="testGettingWealth" duration-ms="10" started-at="2017-07-28T18:12:15Z" description="Testing of getting wealth" finished-at="2017-07-28T18:12:15Z">
          <reporter-output>
          </reporter-output>
        </test-method> <!-- testGettingWealth -->
      </class> <!-- com.epam.gomel.homework.BoyFactoryTest -->
    </test> <!-- Command line test -->
  </suite> <!-- Command line suite -->
</testng-results>
