C:\Work\selenium\TAT_2017\denis_verevkin\l6\src\main\java\com\epam\tat\shapes\Square.java
C:\Work\selenium\TAT_2017\denis_verevkin\l6\src\main\java\com\epam\tat\Main.java
C:\Work\selenium\TAT_2017\denis_verevkin\l6\src\main\java\com\epam\tat\shapes\Shape.java
C:\Work\selenium\TAT_2017\denis_verevkin\l6\src\main\java\com\epam\tat\shapes\Triangle.java
C:\Work\selenium\TAT_2017\denis_verevkin\l6\src\main\java\com\epam\tat\processors\ShapeProcessor.java
C:\Work\selenium\TAT_2017\denis_verevkin\l6\src\main\java\com\epam\tat\shapes\Circle.java
C:\Work\selenium\TAT_2017\denis_verevkin\l6\src\main\java\com\epam\tat\processors\CommandLineProcessor.java
C:\Work\selenium\TAT_2017\denis_verevkin\l6\src\main\java\com\epam\tat\printers\ShapePrinter.java
C:\Work\selenium\TAT_2017\denis_verevkin\l6\src\main\java\com\epam\tat\enums\ShapeEnum.java
C:\Work\selenium\TAT_2017\denis_verevkin\l6\src\main\java\com\epam\tat\processors\FileProcessor.java
C:\Work\selenium\TAT_2017\denis_verevkin\l6\src\main\java\com\epam\tat\shapes\Rectangle.java
